8.1 Explicación | Notas de clase del curso de introducción a Data Science
…
8.1.2.3 Evaluando los modelos aleatorios

Ahora podemos calcular el ECM para todos los modelos del dataframe models. Para eso utilizamos el paquete purrr, para ejecutar varias veces la misma función sobre varios elementos.

Tenemos que pasar los valores de a1 y a2 (dos parámetros –> map2), pero como nuestra función toma sólo uno (el vector a), nos armamos una función de ayuda para wrapear a1 y a2

sim1_dist <- function(a1, a2) {
  measure_distance(c(a1, a2), sim1)
}

models <- models %>% 
  mutate(dist = purrr::map2_dbl(a1, a2, sim1_dist))
models

## # A tibble: 250 x 3
##        a1     a2  dist
##     <dbl>  <dbl> <dbl>
##  1  26.6  -3.45   17.8
##  2  -2.24 -3.72   41.7
##  3  -4.55 -3.32   41.4
##  4   8.28  4.20   17.2
##  5 -15.8   1.82   21.4
##  6  -6.40 -4.88   52.7
##  7 -13.1   1.37   21.3
##  8 -15.2   3.29   13.3
##  9   6.45 -0.426  13.6
## 10  38.9  -0.238  23.2
## # … with 240 more rows
…
