9.3 Práctica Guiada | Notas de clase del curso de introducción a Data Science
…
Función para presentar en formato porcentual

ejercicio2 <- individual %>% 
  filter(ESTADO == 1) %>% 
  group_by(AGLOMERADO, CH04) %>% 
  summarise(promedio_iop = weighted.mean(P21, PONDIIO)) %>% # ponderador
  spread(., CH04, promedio_iop) %>% 
  expss::values2labels(.) %>% 
  mutate(Brecha = ((Varon - Mujer)/Varon)) %>% 
  arrange(-Brecha) %>% 
  mutate(Brecha = scales::percent(Brecha))

ejercicio2

## # A tibble: 32 x 4
## # Groups:   AGLOMERADO [32]
##    AGLOMERADO                        Varon  Mujer Brecha
##    <labelled>                        <dbl>  <dbl> <chr> 
##  1 Bahia Blanca - Cerri             27015. 16331. 39.5% 
##  2 Mar del Plata - Batan            26720. 16759. 37.3% 
##  3 Cdro. Rivadavia - R.Tilly        35599. 22464. 36.9% 
##  4 San Nicolas - Villa Constitucion 21593. 13896. 35.6% 
##  5 Rio Gallegos                     30725. 20323. 33.9% 
##  6 Rio Cuarto                       21263. 14452. 32.0% 
##  7 Posadas                          19034. 13175. 30.8% 
##  8 Partidos del GBA                 21590. 15174. 29.7% 
##  9 Ciudad de Buenos Aires           32350. 22803. 29.5% 
## 10 Gran Cordoba                     19962. 14603. 26.8% 
## # … with 22 more rows
…
Un nuevo ponderador

ejercicio3 <- individual %>% 
  filter(P47T > 0) %>% 
  group_by(AGLOMERADO, CH04) %>% 
  summarise(promedio_iti = weighted.mean(P47T, PONDII)) %>% # ponderador
  spread(., CH04, promedio_iti) %>% 
  expss::values2labels(.) %>% 
  mutate(Brecha = ((Varon - Mujer)/Varon)) %>% 
  arrange(-Brecha) %>% 
  mutate(Brecha = scales::percent(Brecha))

ejercicio3

## # A tibble: 32 x 4
## # Groups:   AGLOMERADO [32]
##    AGLOMERADO                        Varon  Mujer Brecha
##    <labelled>                        <dbl>  <dbl> <chr> 
##  1 Cdro. Rivadavia - R.Tilly        37999. 22549. 40.7% 
##  2 Bahia Blanca - Cerri             30233. 19515. 35.5% 
##  3 San Nicolas - Villa Constitucion 24605. 15944. 35.2% 
##  4 Gran Rosario                     25308. 16809. 33.6% 
##  5 Posadas                          22053. 14888. 32.5% 
##  6 Ushuaia - Rio Grande             36878. 25410. 31.1% 
##  7 Partidos del GBA                 24179. 16846. 30.3% 
##  8 Gran Resistencia                 17314. 12178. 29.7% 
##  9 Neuquen - Plottier               30285. 21577. 28.8% 
## 10 Gran La Plata                    25823. 18996. 26.4% 
## # … with 22 more rows
…
